{
  "cities": [
    {
      "id": "integer",
      "name": "string",
      "domain": "string",
      "shops": [
        {
          "id": "integer",
          "geo": "string|null",
          "name": "string",
          "address": "string|null",
          "postalCode": "integer|null",
          "image": "string|null"
        }
      ]
    }
  ],
  "categories": [
    {
      "id": "integer",
      "parent": "integer|null",
      "name": "string",
      "slug": "string|null"
    }
  ]
}
